…
Be sure to explain your reasoning for this task. Show us the “before”
and “after”.

<!--------------------------- Start your work below --------------------------->

``` r
cancer_sample_untidy <- cancer_sample %>%
   pivot_wider(names_from = ID,
                values_from = radius_mean)
cancer_sample_untidy
```

    ## # A tibble: 569 × 599
    ##    diagnosis texture_m…¹ perim…² area_…³ smoot…⁴ compa…⁵ conca…⁶ conca…⁷ symme…⁸
    ##    <chr>           <dbl>   <dbl>   <dbl>   <dbl>   <dbl>   <dbl>   <dbl>   <dbl>
    ##  1 M                10.4   123.    1001   0.118   0.278   0.300   0.147    0.242
    ##  2 M                17.8   133.    1326   0.0847  0.0786  0.0869  0.0702   0.181
    ##  3 M                21.2   130     1203   0.110   0.160   0.197   0.128    0.207
    ##  4 M                20.4    77.6    386.  0.142   0.284   0.241   0.105    0.260
    ##  5 M                14.3   135.    1297   0.100   0.133   0.198   0.104    0.181
    ##  6 M                15.7    82.6    477.  0.128   0.17    0.158   0.0809   0.209
    ##  7 M                20.0   120.    1040   0.0946  0.109   0.113   0.074    0.179
    ##  8 M                20.8    90.2    578.  0.119   0.164   0.0937  0.0598   0.220
    ##  9 M                21.8    87.5    520.  0.127   0.193   0.186   0.0935   0.235
    ## 10 M                24.0    84.0    476.  0.119   0.240   0.227   0.0854   0.203
    ## # … with 559 more rows, 590 more variables: fractal_dimension_mean <dbl>,
    ## #   radius_se <dbl>, texture_se <dbl>, perimeter_se <dbl>, area_se <dbl>,
    ## #   smoothness_se <dbl>, compactness_se <dbl>, concavity_se <dbl>,
    ## #   concave_points_se <dbl>, symmetry_se <dbl>, fractal_dimension_se <dbl>,
    ## #   radius_worst <dbl>, texture_worst <dbl>, perimeter_worst <dbl>,
    ## #   area_worst <dbl>, smoothness_worst <dbl>, compactness_worst <dbl>,
    ## #   concavity_worst <dbl>, concave_points_worst <dbl>, symmetry_worst <dbl>, …
…
